0 0
0 0
0 0
0 0
0 0
0 0
0 0
0 0
0 0
0 0
0 0
0 0
0 0
0 0
14 0
43 0
33 0
6 0
3 0
0 0
0 0
1 0
0 0
0 0
0 0
0 1
0 1
0 0
0 0
0 0
0 0
0 2
0 1
0 17
0 37
0 37
0 3
0 1
0 0
0 0
0 0
0 0
0 0
0 0
0 0
0 0
0 0
0 0
0 0
0 0
